{"page":1,"per_page":3,"total":15555,"total_pages":2244,"data":[{"id":1,"flightName":"Air India","Country":"India","Destinations":"86","URL":"https:\\/\\/en.wikipedia.org\\/wiki\\/Air_India"},{"id":2,"flightName":"Air Canada","Country":"Canada","Destinations":"19","URL":"\"https:\\/\\/en.wikipedia.org\\/wiki\\/Air_Canada\""}],"support":{"url":"https:\\/\\/omrbranch.com","text":"For Joining Automation Course, Please Contact-Velmurugan 9944152058"}}