{
    "page": 1,
    "per_page": 6,
    "total": 15931,
    "total_pages": 2656,
    "data": [
        {
            "id": 516,
            "flightName": "AIR CANADA",
            "Country": "India",
            "Destinations": "19",
            "URL": "https:\/\/en.wikipedia.org\/wiki\/Air_India"
        },
        {
            "id": 548,
            "flightName": "AirIndia",
            "Country": "India",
            "Destinations": "87",
            "URL": "https:\/\/en.wikipedia.org\/wiki\/Air_India"
        },
        {
            "id": 557,
            "flightName": "AirIndia",
            "Country": "India",
            "Destinations": "87",
            "URL": "https:\/\/en.wikipedia.org\/wiki\/Air_India"
        },
        {
            "id": 561,
            "flightName": "AirIndia",
            "Country": "India",
            "Destinations": "87",
            "URL": "https:\/\/en.wikipedia.org\/wiki\/Air_India"
        },
        {
            "id": 568,
            "flightName": "AirIndia",
            "Country": "India",
            "Destinations": "69",
            "URL": "https:\/\/en.wikipedia.org\/wiki\/Air_India"
        },
        {
            "id": 573,
            "flightName": "AirIndia",
            "Country": "India",
            "Destinations": "54",
            "URL": "https:\/\/en.wikipedia.org\/wiki\/Air_India"
        }
    ],
    "support": {
        "url": "https:\/\/omrbranch.com",
        "text": "For Joining Automation Course, Please Contact-Velmurugan 9944152058"
    }
}
